@startuml

title __SERIALIZER's Class Diagram__\n

  namespace fr.cnam.foad.nfa035.badges.fileutils.streaming.serializer {
    abstract class fr.cnam.foad.nfa035.badges.fileutils.streaming.serializer.AbstractStreamingImageDeserializer {
        - sourceOutputStream : OutputStream
        + deserialize()
        + getSourceOutputStream()
        + setSourceOutputStream()
    }
  }
  

  namespace fr.cnam.foad.nfa035.badges.fileutils.streaming.serializer {
    abstract class fr.cnam.foad.nfa035.badges.fileutils.streaming.serializer.AbstractStreamingImageSerializer {
        + serialize()
    }
  }
  

  namespace fr.cnam.foad.nfa035.badges.fileutils.streaming.serializer {
    interface fr.cnam.foad.nfa035.badges.fileutils.streaming.serializer.BadgeDeserializer {
        {abstract} + deserialize()
        {abstract} + getSourceOutputStream()
        {abstract} + setSourceOutputStream()
    }
  }
  

  namespace fr.cnam.foad.nfa035.badges.fileutils.streaming.serializer {
    interface fr.cnam.foad.nfa035.badges.fileutils.streaming.serializer.DatabaseDeserializer {
        {abstract} + getDeserializingStream()
    }
  }
  

  namespace fr.cnam.foad.nfa035.badges.fileutils.streaming.serializer {
    interface fr.cnam.foad.nfa035.badges.fileutils.streaming.serializer.DirectAccessDatabaseDeserializer {
        {abstract} + deserialize()
        {abstract} + getSourceOutputStream()
        {abstract} + setSourceOutputStream()
    }
  }
  

  namespace fr.cnam.foad.nfa035.badges.fileutils.streaming.serializer {
    interface fr.cnam.foad.nfa035.badges.fileutils.streaming.serializer.ImageStreamingDeserializer {
        {abstract} + getDeserializingStream()
    }
  }
  

  namespace fr.cnam.foad.nfa035.badges.fileutils.streaming.serializer {
    interface fr.cnam.foad.nfa035.badges.fileutils.streaming.serializer.ImageStreamingSerializer {
        {abstract} + getSerializingStream()
        {abstract} + getSourceInputStream()
        {abstract} + serialize()
    }
  }
  

  namespace fr.cnam.foad.nfa035.badges.fileutils.streaming.serializer {
    interface fr.cnam.foad.nfa035.badges.fileutils.streaming.serializer.MetadataDeserializer {
        {abstract} + deserialize()
    }
  }
  

  fr.cnam.foad.nfa035.badges.fileutils.streaming.serializer.AbstractStreamingImageDeserializer .up.|> fr.cnam.foad.nfa035.badges.fileutils.streaming.serializer.ImageStreamingDeserializer
  fr.cnam.foad.nfa035.badges.fileutils.streaming.serializer.AbstractStreamingImageSerializer .up.|> fr.cnam.foad.nfa035.badges.fileutils.streaming.serializer.ImageStreamingSerializer


right footer


PlantUML diagram generated by SketchIt! (https://bitbucket.org/pmesmeur/sketch.it)
For more information about this tool, please contact philippe.mesmeur@gmail.com
endfooter

@enduml
